<?xml version="1.0" encoding="utf-8"?>
<COLLADA xmlns="http://www.collada.org/2005/11/COLLADASchema" version="1.4.1">
  <asset>
    <contributor>
      <author>Blender User</author>
      <authoring_tool>Blender 2.79.1</authoring_tool>
    </contributor>
    <created>2017-12-02T17:01:25</created>
    <modified>2017-12-02T17:01:25</modified>
    <unit name="meter" meter="1"/>
    <up_axis>Z_UP</up_axis>
  </asset>
  <library_cameras>
    <camera id="Camera-camera" name="Camera">
      <optics>
        <technique_common>
          <perspective>
            <xfov sid="xfov">49.13434</xfov>
            <aspect_ratio>1.777778</aspect_ratio>
            <znear sid="znear">0.1</znear>
            <zfar sid="zfar">100</zfar>
          </perspective>
        </technique_common>
      </optics>
      <extra>
        <technique profile="blender">
          <YF_dofdist>0</YF_dofdist>
          <shiftx>0</shiftx>
          <shifty>0</shifty>
        </technique>
      </extra>
    </camera>
  </library_cameras>
  <library_lights>
    <light id="Lamp-light" name="Lamp">
      <technique_common>
        <point>
          <color sid="color">1 1 1</color>
          <constant_attenuation>1</constant_attenuation>
          <linear_attenuation>0</linear_attenuation>
          <quadratic_attenuation>0.00111109</quadratic_attenuation>
        </point>
      </technique_common>
      <extra>
        <technique profile="blender">
          <adapt_thresh>0.000999987</adapt_thresh>
          <area_shape>1</area_shape>
          <area_size>0.1</area_size>
          <area_sizey>0.1</area_sizey>
          <area_sizez>1</area_sizez>
          <atm_distance_factor>1</atm_distance_factor>
          <atm_extinction_factor>1</atm_extinction_factor>
          <atm_turbidity>2</atm_turbidity>
          <att1>0</att1>
          <att2>1</att2>
          <backscattered_light>1</backscattered_light>
          <bias>1</bias>
          <blue>1</blue>
          <buffers>1</buffers>
          <bufflag>0</bufflag>
          <bufsize>2880</bufsize>
          <buftype>2</buftype>
          <clipend>30.002</clipend>
          <clipsta>1.000799</clipsta>
          <compressthresh>0.04999995</compressthresh>
          <dist sid="blender_dist">29.99998</dist>
          <energy sid="blender_energy">1</energy>
          <falloff_type>2</falloff_type>
          <filtertype>0</filtertype>
          <flag>0</flag>
          <gamma sid="blender_gamma">1</gamma>
          <green>1</green>
          <halo_intensity sid="blnder_halo_intensity">1</halo_intensity>
          <horizon_brightness>1</horizon_brightness>
          <mode>8192</mode>
          <ray_samp>1</ray_samp>
          <ray_samp_method>1</ray_samp_method>
          <ray_samp_type>0</ray_samp_type>
          <ray_sampy>1</ray_sampy>
          <ray_sampz>1</ray_sampz>
          <red>1</red>
          <samp>3</samp>
          <shadhalostep>0</shadhalostep>
          <shadow_b sid="blender_shadow_b">0</shadow_b>
          <shadow_g sid="blender_shadow_g">0</shadow_g>
          <shadow_r sid="blender_shadow_r">0</shadow_r>
          <sky_colorspace>0</sky_colorspace>
          <sky_exposure>1</sky_exposure>
          <skyblendfac>1</skyblendfac>
          <skyblendtype>1</skyblendtype>
          <soft>3</soft>
          <spotblend>0.15</spotblend>
          <spotsize>75</spotsize>
          <spread>1</spread>
          <sun_brightness>1</sun_brightness>
          <sun_effect_type>0</sun_effect_type>
          <sun_intensity>1</sun_intensity>
          <sun_size>1</sun_size>
          <type>0</type>
        </technique>
      </extra>
    </light>
  </library_lights>
  <library_images/>
  <library_effects>
    <effect id="Material-effect">
      <profile_COMMON>
        <technique sid="common">
          <lambert>
            <emission>
              <color sid="emission">0 0 0 1</color>
            </emission>
            <ambient>
              <color sid="ambient">0 0 0 1</color>
            </ambient>
            <diffuse>
              <color sid="diffuse">0.64 0.64 0.64 1</color>
            </diffuse>
            <index_of_refraction>
              <float sid="index_of_refraction">1</float>
            </index_of_refraction>
          </lambert>
        </technique>
      </profile_COMMON>
    </effect>
  </library_effects>
  <library_materials>
    <material id="Material-material" name="Material">
      <instance_effect url="#Material-effect"/>
    </material>
  </library_materials>
  <library_geometries>
    <geometry id="Cube-mesh" name="Cube">
      <mesh>
        <source id="Cube-mesh-positions">
          <float_array id="Cube-mesh-positions-array" count="102">1 1.857073 -1 0.9042646 -1 -0.9042646 -0.9042648 -0.9999998 -0.9042646 -0.9999997 1.857073 -1 1 1.857072 1 0.904264 -1.000001 0.9042646 -0.9042651 -0.9999997 0.9042646 -1 1.857073 1 0.1890817 -3.399247 -0.1890828 -0.1890835 -3.399247 -0.1890828 0.1890815 -3.399247 0.1890823 -0.1890835 -3.399247 0.1890823 1 0.1233282 -1 -0.9999998 0.1233286 -1 1 0.1233277 1 -1 0.1233283 1 3.34095e-7 1.857073 -1.353246 0 -0.9999999 -1.223692 4.14755e-7 1.857072 1.353246 -6.33822e-7 -1 1.223692 -1.15811e-6 -3.399247 -0.2558755 -1.2791e-6 -3.399247 0.2558749 0 0.123328 1.353246 2.53435e-7 0.1233284 -1.353246 1.353246 1.857072 0 1.223692 -1 0 -1.223693 -0.9999998 0 -1.353245 1.857073 0 0.255874 -3.399247 -2.98075e-7 -0.2558764 -3.399247 -2.98075e-7 -1.353245 0.1233285 0 1.353246 0.1233279 0 -1.2186e-6 -3.399247 -2.98075e-7 3.74425e-7 2.818716 0</float_array>
          <technique_common>
            <accessor source="#Cube-mesh-positions-array" count="34" stride="3">
              <param name="X" type="float"/>
              <param name="Y" type="float"/>
              <param name="Z" type="float"/>
            </accessor>
          </technique_common>
        </source>
        <source id="Cube-mesh-normals">
          <float_array id="Cube-mesh-normals-array" count="183">-0.3311232 -0.1081072 -0.9373742 -0.3311236 -0.1081072 0.937374 0.937374 -0.1081078 0.3311237 0.3113166 -0.3555042 -0.8813053 -0.9429003 1.29664e-7 0.3330752 -0.5674992 0.7985974 -0.2004666 0 -1 6.15985e-7 -0.3113174 -0.355504 0.881305 -0.8813046 -0.3555035 -0.3113189 0.8813052 -0.3555045 0.3113163 -0.9373742 -0.1081071 0.3311233 0.9429003 -2.59329e-7 0.3330754 -0.3330753 0 0.9429003 -0.3330754 0 -0.9429002 0.3330756 0 -0.9429003 0.3330754 0 0.9429002 0.311317 -0.3555042 0.881305 0 -1 0 0.5674993 0.7985973 -0.2004666 -0.3113173 -0.3555038 -0.881305 0.3311234 -0.1081076 0.937374 0.3311235 -0.1081074 -0.9373741 0.2004668 0.7985973 0.5674992 0 -1 1.1088e-6 0.9429002 0 -0.3330758 -0.9373742 -0.108107 -0.3311234 0.881305 -0.3555042 -0.3113173 -0.8813052 -0.3555039 0.3113171 -0.2004664 0.7985973 0.5674994 -0.9429003 1.29664e-7 -0.3330755 0.937374 -0.1081073 -0.3311235 -0.3311237 -0.1081072 -0.9373739 -0.3311233 -0.1081073 0.9373741 0.937374 -0.1081079 0.3311233 0.3113172 -0.355504 -0.881305 -0.9429003 0 0.3330752 -0.2004665 0.7985975 -0.5674992 -0.3113175 -0.355504 0.881305 -0.881305 -0.3555038 -0.3113172 0.8813049 -0.3555043 0.3113173 -0.9373742 -0.1081069 0.3311232 0.9429002 -1.29664e-7 0.3330755 -0.3330753 0 0.9429003 -0.3330755 0 -0.9429003 0.3330756 0 -0.9429003 0.3330754 0 0.9429003 0.3113169 -0.3555043 0.881305 -1.26092e-6 -1 1.1088e-6 0.2004667 0.7985973 -0.5674993 -0.3113173 -0.3555039 -0.881305 0.3311232 -0.1081076 0.9373741 0.3311236 -0.1081074 -0.9373741 0.5674992 0.7985973 0.2004669 0.9429003 -2.59329e-7 -0.3330755 -0.9373741 -0.1081068 -0.3311235 0.8813056 -0.3555046 -0.3113151 -0.8813047 -0.3555036 0.3113188 0 -1 -6.15985e-7 -0.5674993 0.7985976 0.2004662 -0.9429003 0 -0.3330755 0.9373742 -0.1081079 -0.3311232</float_array>
          <technique_common>
            <accessor source="#Cube-mesh-normals-array" count="61" stride="3">
              <param name="X" type="float"/>
              <param name="Y" type="float"/>
              <param name="Z" type="float"/>
            </accessor>
          </technique_common>
        </source>
        <vertices id="Cube-mesh-vertices">
          <input semantic="POSITION" source="#Cube-mesh-positions"/>
        </vertices>
        <triangles material="Material-material" count="64">
          <input semantic="VERTEX" source="#Cube-mesh-vertices" offset="0"/>
          <input semantic="NORMAL" source="#Cube-mesh-normals" offset="1"/>
          <p>23 0 2 0 13 0 22 1 6 1 19 1 31 2 5 2 25 2 17 3 8 3 20 3 30 4 7 4 27 4 33 5 3 5 27 5 32 6 11 6 29 6 19 7 11 7 21 7 26 8 9 8 29 8 25 9 10 9 28 9 6 10 30 10 26 10 4 11 31 11 24 11 18 12 15 12 22 12 16 13 13 13 3 13 0 14 23 14 16 14 4 15 22 15 14 15 19 16 10 16 5 16 10 17 32 17 28 17 0 18 33 18 24 18 17 19 9 19 2 19 22 20 5 20 14 20 1 21 23 21 12 21 4 22 33 22 18 22 8 23 32 23 20 23 24 24 12 24 0 24 2 25 30 25 13 25 25 26 8 26 1 26 26 27 11 27 6 27 32 17 9 17 20 17 33 28 7 28 18 28 13 29 27 29 3 29 31 30 1 30 12 30 23 31 17 31 2 31 22 32 15 32 6 32 31 33 14 33 5 33 17 34 1 34 8 34 30 35 15 35 7 35 33 36 16 36 3 36 32 17 21 17 11 17 19 37 6 37 11 37 26 38 2 38 9 38 25 39 5 39 10 39 6 40 15 40 30 40 4 41 14 41 31 41 18 42 7 42 15 42 16 43 23 43 13 43 0 44 12 44 23 44 4 45 18 45 22 45 19 46 21 46 10 46 10 47 21 47 32 47 0 48 16 48 33 48 17 49 20 49 9 49 22 50 19 50 5 50 1 51 17 51 23 51 4 52 24 52 33 52 8 17 28 17 32 17 24 53 31 53 12 53 2 54 26 54 30 54 25 55 28 55 8 55 26 56 29 56 11 56 32 57 29 57 9 57 33 58 27 58 7 58 13 59 30 59 27 59 31 60 25 60 1 60</p>
        </triangles>
      </mesh>
    </geometry>
  </library_geometries>
  <library_controllers/>
  <library_visual_scenes>
    <visual_scene id="Scene" name="Scene">
      <node id="Camera" name="Camera" type="NODE">
        <matrix sid="transform">0.6859207 -0.3240135 0.6515582 7.481132 0.7276763 0.3054208 -0.6141704 -6.50764 0 0.8953956 0.4452714 5.343665 0 0 0 1</matrix>
        <instance_camera url="#Camera-camera"/>
      </node>
      <node id="Lamp" name="Lamp" type="NODE">
        <matrix sid="transform">-0.2908646 -0.7711008 0.5663932 4.076245 0.9551712 -0.1998834 0.2183912 1.005454 -0.05518906 0.6045247 0.7946723 5.903862 0 0 0 1</matrix>
        <instance_light url="#Lamp-light"/>
      </node>
      <node id="Cube" name="Cube" type="NODE">
        <matrix sid="transform">1 0 0 0 0 1 0 0 0 0 1 0 0 0 0 1</matrix>
        <instance_geometry url="#Cube-mesh" name="Cube">
          <bind_material>
            <technique_common>
              <instance_material symbol="Material-material" target="#Material-material"/>
            </technique_common>
          </bind_material>
        </instance_geometry>
      </node>
    </visual_scene>
  </library_visual_scenes>
  <scene>
    <instance_visual_scene url="#Scene"/>
  </scene>
</COLLADA>