<?xml version="1.0" encoding="utf-8"?>
<COLLADA xmlns="http://www.collada.org/2005/11/COLLADASchema" version="1.4.1">
  <asset>
    <contributor>
      <author>Blender User</author>
      <authoring_tool>Blender 2.79.1</authoring_tool>
    </contributor>
    <created>2017-12-03T11:32:11</created>
    <modified>2017-12-03T11:32:11</modified>
    <unit name="meter" meter="1"/>
    <up_axis>Z_UP</up_axis>
  </asset>
  <library_images/>
  <library_effects>
    <effect id="Tower_Material-effect">
      <profile_COMMON>
        <technique sid="common">
          <phong>
            <emission>
              <color sid="emission">0 0 0 1</color>
            </emission>
            <ambient>
              <color sid="ambient">0 0 0 1</color>
            </ambient>
            <diffuse>
              <color sid="diffuse">0.08855108 0.08855108 0.08855108 1</color>
            </diffuse>
            <specular>
              <color sid="specular">0.5 0.5 0.5 1</color>
            </specular>
            <shininess>
              <float sid="shininess">50</float>
            </shininess>
            <index_of_refraction>
              <float sid="index_of_refraction">1</float>
            </index_of_refraction>
          </phong>
        </technique>
      </profile_COMMON>
    </effect>
  </library_effects>
  <library_materials>
    <material id="Tower_Material-material" name="Tower_Material">
      <instance_effect url="#Tower_Material-effect"/>
    </material>
  </library_materials>
  <library_geometries>
    <geometry id="Cube-mesh" name="Cube">
      <mesh>
        <source id="Cube-mesh-positions">
          <float_array id="Cube-mesh-positions-array" count="390">0.2776668 0.8330001 -0.01218277 0.2776669 1 -0.01218277 0.277667 0.9999997 3.833 0.2776669 0.8329997 4 1 0.2776666 -0.01218277 0.833 0.2776666 -0.01218277 0.8330001 0.2776662 4 1 0.2776662 3.833 0.2776667 0.2776664 4 0.2776668 0.2776668 -0.01218277 1.37383 1.206829 -0.01218277 1.20683 1.206829 -0.01218277 1.20683 1.373829 -0.01218277 1.20683 1.373829 3.833 1.20683 1.206829 4 1.37383 1.206829 3.833 0.6514965 1.206829 -0.01218277 0.6514966 1.373829 -0.01218277 0.6514967 1.373829 3.833 0.6514967 1.206829 4 1.37383 0.6514959 -0.01218277 1.20683 0.6514961 -0.01218277 1.20683 0.6514956 4 1.37383 0.6514956 3.833 0.6514964 0.6514958 4 0.6514965 0.6514962 -0.01218277 -0.2776668 0.8330001 -0.01218277 -0.2776669 1 -0.01218277 -0.277667 0.9999997 3.833 -0.2776669 0.8329997 4 -1 0.2776666 -0.01218277 -0.833 0.2776666 -0.01218277 -0.8330001 0.2776662 4 -1 0.2776662 3.833 -0.2776667 0.2776664 4 -0.2776668 0.2776668 -0.01218277 0 0.8330001 -0.01218277 0 1 -0.01218277 0 0.9999997 3.833 0 0.8329998 4 0 0.2776668 -0.01218277 0 0.2776665 4 -1.37383 1.206829 -0.01218277 -1.20683 1.206829 -0.01218277 -1.20683 1.373829 -0.01218277 -1.20683 1.373829 3.833 -1.20683 1.206829 4 -1.37383 1.206829 3.833 -0.6514965 1.206829 -0.01218277 -0.6514966 1.373829 -0.01218277 -0.6514967 1.373829 3.833 -0.6514967 1.206829 4 -1.37383 0.6514959 -0.01218277 -1.20683 0.6514961 -0.01218277 -1.20683 0.6514956 4 -1.37383 0.6514956 3.833 -0.6514964 0.6514958 4 -0.6514965 0.6514962 -0.01218277 0.2776668 -0.8330001 -0.01218277 0.2776669 -1 -0.01218277 0.277667 -0.9999997 3.833 0.2776669 -0.8329997 4 1 -0.2776666 -0.01218277 0.833 -0.2776666 -0.01218277 0.8330001 -0.2776662 4 1 -0.2776662 3.833 0.2776667 -0.2776664 4 0.2776668 -0.2776668 -0.01218277 1 0 -0.01218277 0.833 0 -0.01218277 0.833 0 4 0.9999999 0 3.833 0.2776666 0 4 0.2776668 0 -0.01218277 1.37383 -1.206829 -0.01218277 1.20683 -1.206829 -0.01218277 1.20683 -1.373829 -0.01218277 1.20683 -1.373829 3.833 1.20683 -1.206829 4 1.37383 -1.206829 3.833 0.6514965 -1.206829 -0.01218277 0.6514966 -1.373829 -0.01218277 0.6514967 -1.373829 3.833 0.6514967 -1.206829 4 1.37383 -0.6514959 -0.01218277 1.20683 -0.6514961 -0.01218277 1.20683 -0.6514956 4 1.37383 -0.6514956 3.833 0.6514964 -0.6514958 4 0.6514965 -0.6514962 -0.01218277 -0.2776668 -0.8330001 -0.01218277 -0.2776669 -1 -0.01218277 -0.277667 -0.9999997 3.833 -0.2776669 -0.8329997 4 -1 -0.2776666 -0.01218277 -0.833 -0.2776666 -0.01218277 -0.8330001 -0.2776662 4 -1 -0.2776662 3.833 -0.2776667 -0.2776664 4 -0.2776668 -0.2776668 -0.01218277 -1 0 -0.01218277 -0.833 0 -0.01218277 -0.833 0 4 -0.9999999 0 3.833 -0.2776666 0 4 -0.2776668 0 -0.01218277 0 -0.8330001 -0.01218277 0 -1 -0.01218277 0 -0.9999997 3.833 0 -0.8329998 4 0 -0.2776668 -0.01218277 0 -0.2776665 4 0 0 4 0 0 -0.01218277 -1.37383 -1.206829 -0.01218277 -1.20683 -1.206829 -0.01218277 -1.20683 -1.373829 -0.01218277 -1.20683 -1.373829 3.833 -1.20683 -1.206829 4 -1.37383 -1.206829 3.833 -0.6514965 -1.206829 -0.01218277 -0.6514966 -1.373829 -0.01218277 -0.6514967 -1.373829 3.833 -0.6514967 -1.206829 4 -1.37383 -0.6514959 -0.01218277 -1.20683 -0.6514961 -0.01218277 -1.20683 -0.6514956 4 -1.37383 -0.6514956 3.833 -0.6514964 -0.6514958 4 -0.6514965 -0.6514962 -0.01218277</float_array>
          <technique_common>
            <accessor source="#Cube-mesh-positions-array" count="130" stride="3">
              <param name="X" type="float"/>
              <param name="Y" type="float"/>
              <param name="Z" type="float"/>
            </accessor>
          </technique_common>
        </source>
        <source id="Cube-mesh-normals">
          <float_array id="Cube-mesh-normals-array" count="372">0.5773496 -0.5773512 0.5773501 -0.5773513 0.5773501 0.5773494 0 0 -1 -0.7071065 0.7071071 1.31806e-7 0.7071064 -0.7071072 0 0 0 -1 0 0 1 0 0 -1 0.7071071 0 0.7071065 1 0 0 0 0 -1 2.14662e-7 1 0 0 0 -1 0 0.7071073 0.7071063 0.5773517 0.5773496 0.5773496 0.7071071 0.7071065 0 0 0.7071082 0.7071053 0 0 -1 2.14663e-7 1 1.67479e-7 1 0 0 0.7071063 -2.2723e-7 0.7071074 -0.5773496 -0.5773512 0.5773501 0.5773496 0.5773511 0.5773502 0.7071064 0.7071072 0 -0.7071063 -0.7071073 0 -0.7071071 -4.5446e-7 0.7071065 -1 0 0 0 0 -1 -2.14662e-7 1 0 -3.03579e-7 0.7071074 0.7071062 -0.5773517 0.5773496 0.5773496 -0.7071071 0.7071065 0 -3.03579e-7 0.7071082 0.7071055 0 0 -1 -2.14663e-7 1 1.66956e-7 0 0 -1 -1 0 0 -0.7071083 -6.81688e-7 0.7071054 0 0 -1 0.5773496 0.5773512 0.5773501 -0.5773496 -0.5773511 0.5773502 -0.7071064 -0.7071072 0 0.7071063 0.7071073 0 0.7071071 4.5446e-7 0.7071065 0 0 -1 2.14662e-7 -1 0 3.03579e-7 -0.7071074 0.7071062 0.5773517 -0.5773496 0.5773496 0.7071071 -0.7071065 0 3.03579e-7 -0.7071082 0.7071055 0 0 -1 2.14663e-7 -1 1.66956e-7 0 0 -1 0.7071083 6.81688e-7 0.7071054 0 0 -1 -0.5773496 0.5773512 0.5773501 0.5773513 -0.5773501 0.5773494 0 0 -1 0.7071065 -0.7071071 1.31806e-7 -0.7071064 0.7071072 0 0 0 -1 -0.7071071 0 0.7071065 0 0 -1 -2.14662e-7 -1 0 0 0 -1 0 -0.7071073 0.7071063 -0.5773517 -0.5773496 0.5773496 -0.7071071 -0.7071065 0 0 -0.7071082 0.7071053 0 0 -1 -2.14663e-7 -1 1.67479e-7 -0.7071063 2.2723e-7 0.7071074 0.5773525 -0.5773497 0.5773487 -0.5773496 0.5773511 0.5773502 -0.7071064 0.7071072 0 0.7071067 -0.707107 0 0 0 -1 0.7071071 -4.5446e-7 0.7071065 1 -4.46612e-7 0 -1.54619e-6 0 1 4.29325e-7 1 1.67479e-7 0 0.7071066 0.707107 0.7071076 0.707106 0 0 0.7071079 0.7071056 2.14663e-7 1 1.2574e-7 1 -4.46611e-7 0 0.7071083 -6.81688e-7 0.7071054 -0.5773525 -0.5773497 0.5773487 0.5773513 0.5773501 0.5773494 0.7071065 0.7071071 1.31806e-7 -0.7071067 -0.707107 0 -1 -4.46612e-7 0 -4.29325e-7 1 1.67479e-7 -0.7071076 0.707106 0 0 0.7071078 0.7071058 -2.14663e-7 1 0 -1 -4.46611e-7 0 -0.7071063 -2.2723e-7 0.7071074 0.5773525 0.5773497 0.5773487 -0.5773513 -0.5773501 0.5773494 -0.7071065 -0.7071071 1.31806e-7 0.7071067 0.707107 0 1 4.46612e-7 0 4.29325e-7 -1 1.67479e-7 0 -0.7071066 0.707107 0.7071076 -0.707106 0 0 -0.7071078 0.7071058 2.14663e-7 -1 0 1 4.46611e-7 0 0.7071063 2.2723e-7 0.7071074 -0.5773525 0.5773497 0.5773487 0.5773496 -0.5773511 0.5773502 0.7071064 -0.7071072 0 -0.7071067 0.707107 0 0 0 -1 -0.7071071 4.5446e-7 0.7071065 -1 4.46612e-7 0 1.54619e-6 0 1 -4.29325e-7 -1 1.67479e-7 -0.7071076 -0.707106 0 0 -0.7071079 0.7071056 -2.14663e-7 -1 1.2574e-7 -1 4.46611e-7 0 -0.7071083 6.81688e-7 0.7071054</float_array>
          <technique_common>
            <accessor source="#Cube-mesh-normals-array" count="124" stride="3">
              <param name="X" type="float"/>
              <param name="Y" type="float"/>
              <param name="Z" type="float"/>
            </accessor>
          </technique_common>
        </source>
        <vertices id="Cube-mesh-vertices">
          <input semantic="POSITION" source="#Cube-mesh-positions"/>
        </vertices>
        <triangles material="Tower_Material-material" count="256">
          <input semantic="VERTEX" source="#Cube-mesh-vertices" offset="0"/>
          <input semantic="NORMAL" source="#Cube-mesh-normals" offset="1"/>
          <p>7 0 22 0 6 0 2 1 19 1 18 1 5 2 25 2 21 2 1 3 18 3 17 3 4 4 23 4 7 4 0 5 25 5 9 5 6 6 24 6 8 6 4 7 21 7 20 7 3 6 24 6 19 6 1 5 16 5 0 5 4 5 69 5 5 5 6 8 71 8 7 8 7 9 68 9 4 9 8 6 70 6 6 6 5 5 73 5 9 5 9 5 113 5 40 5 41 6 72 6 8 6 39 6 8 6 3 6 0 10 40 10 36 10 1 11 38 11 2 11 0 12 37 12 1 12 38 13 3 13 2 13 10 5 11 5 12 5 13 14 14 14 15 14 13 15 10 15 12 15 18 16 14 16 13 16 11 17 17 17 12 17 12 18 18 18 13 18 11 5 25 5 16 5 19 6 22 6 14 6 15 19 20 19 10 19 14 20 23 20 15 20 10 5 21 5 11 5 54 21 33 21 32 21 28 22 51 22 29 22 31 5 57 5 35 5 27 23 50 23 28 23 55 24 30 24 33 24 57 5 26 5 35 5 56 6 32 6 34 6 30 5 53 5 31 5 29 6 56 6 34 6 48 5 27 5 26 5 30 5 101 5 100 5 32 25 103 25 102 25 100 26 33 26 30 26 102 6 34 6 32 6 31 5 105 5 101 5 35 5 113 5 105 5 104 6 41 6 34 6 34 6 39 6 29 6 26 27 40 27 35 27 38 28 27 28 28 28 26 5 37 5 36 5 29 29 38 29 28 29 42 5 44 5 43 5 45 30 47 30 46 30 42 31 45 31 44 31 46 32 50 32 45 32 43 33 49 33 48 33 50 34 44 34 45 34 43 35 57 35 53 35 54 6 51 6 46 6 52 36 47 36 42 36 46 37 55 37 54 37 42 38 53 38 52 38 86 39 65 39 64 39 60 40 83 40 61 40 63 5 89 5 67 5 59 41 82 41 60 41 87 42 62 42 65 42 89 5 58 5 67 5 88 6 64 6 66 6 62 5 85 5 63 5 61 6 88 6 66 6 80 5 59 5 58 5 62 5 69 5 68 5 64 43 71 43 70 43 68 9 65 9 62 9 70 6 66 6 64 6 63 5 73 5 69 5 67 5 113 5 73 5 72 6 111 6 66 6 66 6 109 6 61 6 58 44 110 44 67 44 108 45 59 45 60 45 58 5 107 5 106 5 61 46 108 46 60 46 74 5 76 5 75 5 77 47 79 47 78 47 74 48 77 48 76 48 78 49 82 49 77 49 75 50 81 50 80 50 82 51 76 51 77 51 75 52 89 52 85 52 86 6 83 6 78 6 84 19 79 19 74 19 78 53 87 53 86 53 74 54 85 54 84 54 97 55 126 55 96 55 92 56 123 56 122 56 95 57 129 57 125 57 91 58 122 58 121 58 94 59 127 59 97 59 90 5 129 5 99 5 96 6 128 6 98 6 94 60 125 60 124 60 93 6 128 6 123 6 91 5 120 5 90 5 94 5 101 5 95 5 96 61 103 61 97 61 97 26 100 26 94 26 98 6 102 6 96 6 95 5 105 5 99 5 99 5 113 5 110 5 111 6 104 6 98 6 109 6 98 6 93 6 90 62 110 62 106 62 91 63 108 63 92 63 90 64 107 64 91 64 108 65 93 65 92 65 114 5 115 5 116 5 117 66 118 66 119 66 117 67 114 67 116 67 122 68 118 68 117 68 115 69 121 69 116 69 116 70 122 70 117 70 115 5 129 5 120 5 123 6 126 6 118 6 119 36 124 36 114 36 118 71 127 71 119 71 114 5 125 5 115 5 7 72 23 72 22 72 2 73 3 73 19 73 5 5 9 5 25 5 1 74 2 74 18 74 4 75 20 75 23 75 0 76 16 76 25 76 6 6 22 6 24 6 4 5 5 5 21 5 3 6 8 6 24 6 1 5 17 5 16 5 4 5 68 5 69 5 6 77 70 77 71 77 7 78 71 78 68 78 8 6 72 6 70 6 5 5 69 5 73 5 9 5 73 5 113 5 41 6 112 6 72 6 39 79 41 79 8 79 0 44 9 44 40 44 1 80 37 80 38 80 0 5 36 5 37 5 38 81 39 81 3 81 13 82 15 82 10 82 18 83 19 83 14 83 11 50 16 50 17 50 12 84 17 84 18 84 11 52 21 52 25 52 19 6 24 6 22 6 15 85 23 85 20 85 14 86 22 86 23 86 10 54 20 54 21 54 54 87 55 87 33 87 28 88 50 88 51 88 31 57 53 57 57 57 27 89 49 89 50 89 55 90 52 90 30 90 57 5 48 5 26 5 56 6 54 6 32 6 30 60 52 60 53 60 29 6 51 6 56 6 48 5 49 5 27 5 30 5 31 5 101 5 32 61 33 61 103 61 100 91 103 91 33 91 102 6 104 6 34 6 31 5 35 5 105 5 35 5 40 5 113 5 104 6 112 6 41 6 34 6 41 6 39 6 26 62 36 62 40 62 38 92 37 92 27 92 26 64 27 64 37 64 29 81 39 81 38 81 42 93 47 93 45 93 46 94 51 94 50 94 43 69 44 69 49 69 50 95 49 95 44 95 43 5 48 5 57 5 54 6 56 6 51 6 52 96 55 96 47 96 46 97 47 97 55 97 42 5 43 5 53 5 86 98 87 98 65 98 60 99 82 99 83 99 63 2 85 2 89 2 59 100 81 100 82 100 87 101 84 101 62 101 89 5 80 5 58 5 88 6 86 6 64 6 62 7 84 7 85 7 61 6 83 6 88 6 80 5 81 5 59 5 62 5 63 5 69 5 64 8 65 8 71 8 68 102 71 102 65 102 70 6 72 6 66 6 63 5 67 5 73 5 67 5 110 5 113 5 72 6 112 6 111 6 66 6 111 6 109 6 58 10 106 10 110 10 108 103 107 103 59 103 58 12 59 12 107 12 61 104 109 104 108 104 74 105 79 105 77 105 78 106 83 106 82 106 75 17 76 17 81 17 82 107 81 107 76 107 75 5 80 5 89 5 86 6 88 6 83 6 84 108 87 108 79 108 78 109 79 109 87 109 74 5 75 5 85 5 97 110 127 110 126 110 92 111 93 111 123 111 95 5 99 5 129 5 91 112 92 112 122 112 94 113 124 113 127 113 90 114 120 114 129 114 96 6 126 6 128 6 94 5 95 5 125 5 93 6 98 6 128 6 91 5 121 5 120 5 94 5 100 5 101 5 96 115 102 115 103 115 97 116 103 116 100 116 98 6 104 6 102 6 95 5 101 5 105 5 99 5 105 5 113 5 111 6 112 6 104 6 109 117 111 117 98 117 90 27 99 27 110 27 91 118 107 118 108 118 90 5 106 5 107 5 108 104 109 104 93 104 117 119 119 119 114 119 122 120 123 120 118 120 115 33 120 33 121 33 116 121 121 121 122 121 115 35 125 35 129 35 123 6 128 6 126 6 119 122 127 122 124 122 118 123 126 123 127 123 114 38 124 38 125 38</p>
        </triangles>
      </mesh>
    </geometry>
    <geometry id="Cylinder_001-mesh" name="Cylinder.001">
      <mesh>
        <source id="Cylinder_001-mesh-positions">
          <float_array id="Cylinder_001-mesh-positions-array" count="48">0 1 -1 0 1 1 0.7071068 0.7071068 -1 0.7071068 0.7071068 1 1 0 -1 1 0 1 0.7071068 -0.7071068 -1 0.7071068 -0.7071068 1 0 -1 -1 0 -1 1 -0.7071069 -0.7071067 -1 -0.7071069 -0.7071067 1 -1 0 -1 -1 0 1 -0.7071069 0.7071067 -1 -0.7071069 0.7071067 1</float_array>
          <technique_common>
            <accessor source="#Cylinder_001-mesh-positions-array" count="16" stride="3">
              <param name="X" type="float"/>
              <param name="Y" type="float"/>
              <param name="Z" type="float"/>
            </accessor>
          </technique_common>
        </source>
        <source id="Cylinder_001-mesh-normals">
          <float_array id="Cylinder_001-mesh-normals-array" count="57">0.3826835 0.9238796 0 0.9238796 0.3826835 0 0.9238796 -0.3826834 0 0.3826834 -0.9238796 0 -0.3826836 -0.9238795 0 -0.9238796 -0.3826833 0 0 0 1 -0.9238796 0.3826835 0 -0.3826836 0.9238796 0 0 0 -1 0.9238796 0.3826834 0 0.9238795 -0.3826835 0 0.3826834 -0.9238796 0 -0.3826836 -0.9238796 0 -0.9238796 -0.3826835 0 -2.87797e-7 0 1 0 0 1 0 0 1 -0.9238796 0.3826833 0</float_array>
          <technique_common>
            <accessor source="#Cylinder_001-mesh-normals-array" count="19" stride="3">
              <param name="X" type="float"/>
              <param name="Y" type="float"/>
              <param name="Z" type="float"/>
            </accessor>
          </technique_common>
        </source>
        <vertices id="Cylinder_001-mesh-vertices">
          <input semantic="POSITION" source="#Cylinder_001-mesh-positions"/>
        </vertices>
        <triangles material="Tower_Material-material" count="28">
          <input semantic="VERTEX" source="#Cylinder_001-mesh-vertices" offset="0"/>
          <input semantic="NORMAL" source="#Cylinder_001-mesh-normals" offset="1"/>
          <p>1 0 2 0 0 0 3 1 4 1 2 1 5 2 6 2 4 2 7 3 8 3 6 3 9 4 10 4 8 4 11 5 12 5 10 5 5 6 1 6 13 6 13 7 14 7 12 7 15 8 0 8 14 8 6 9 10 9 14 9 1 0 3 0 2 0 3 10 5 10 4 10 5 11 7 11 6 11 7 12 9 12 8 12 9 13 11 13 10 13 11 14 13 14 12 14 5 15 3 15 1 15 1 16 15 16 13 16 13 16 11 16 9 16 9 16 7 16 13 16 7 17 5 17 13 17 13 18 15 18 14 18 15 8 1 8 0 8 14 9 0 9 2 9 2 9 4 9 6 9 6 9 8 9 10 9 10 9 12 9 14 9 14 9 2 9 6 9</p>
        </triangles>
      </mesh>
    </geometry>
    <geometry id="Cylinder_002-mesh" name="Cylinder.002">
      <mesh>
        <source id="Cylinder_002-mesh-positions">
          <float_array id="Cylinder_002-mesh-positions-array" count="30">0 1 -1 0 1.000892 1 0.9510565 0.309017 -1 0.9519944 0.3092276 1 0.5877852 -0.8090171 -1 0.5883649 -0.8099092 1 -0.5877854 -0.809017 -1 -0.588365 -0.809909 1 -0.9510565 0.3090171 -1 -0.9519944 0.3092278 1</float_array>
          <technique_common>
            <accessor source="#Cylinder_002-mesh-positions-array" count="10" stride="3">
              <param name="X" type="float"/>
              <param name="Y" type="float"/>
              <param name="Z" type="float"/>
            </accessor>
          </technique_common>
        </source>
        <source id="Cylinder_002-mesh-normals">
          <float_array id="Cylinder_002-mesh-normals-array" count="45">0.5877853 0.809017 -3.60902e-4 0.9510565 -0.309017 -4.13436e-4 0 -1 -4.46083e-4 0 0 1 -0.9510565 -0.3090168 -4.13467e-4 -0.5877852 0.809017 -3.6091e-4 0 0 -1 0.5877853 0.8090169 -3.60848e-4 0.9510565 -0.309017 -4.13508e-4 -1.51958e-7 -1 -4.46047e-4 -1.81042e-7 0 1 0 0 1 -0.9510565 -0.3090168 -4.13472e-4 -0.5877853 0.8090171 -3.6085e-4 0 0 -1</float_array>
          <technique_common>
            <accessor source="#Cylinder_002-mesh-normals-array" count="15" stride="3">
              <param name="X" type="float"/>
              <param name="Y" type="float"/>
              <param name="Z" type="float"/>
            </accessor>
          </technique_common>
        </source>
        <vertices id="Cylinder_002-mesh-vertices">
          <input semantic="POSITION" source="#Cylinder_002-mesh-positions"/>
        </vertices>
        <triangles material="Tower_Material-material" count="16">
          <input semantic="VERTEX" source="#Cylinder_002-mesh-vertices" offset="0"/>
          <input semantic="NORMAL" source="#Cylinder_002-mesh-normals" offset="1"/>
          <p>1 0 2 0 0 0 3 1 4 1 2 1 5 2 6 2 4 2 1 3 7 3 5 3 6 4 9 4 8 4 8 5 1 5 0 5 2 6 6 6 8 6 1 7 3 7 2 7 3 8 5 8 4 8 5 9 7 9 6 9 5 10 3 10 1 10 1 11 9 11 7 11 6 12 7 12 9 12 8 13 9 13 1 13 8 14 0 14 2 14 2 14 4 14 6 14</p>
        </triangles>
      </mesh>
    </geometry>
  </library_geometries>
  <library_controllers/>
  <library_visual_scenes>
    <visual_scene id="Scene" name="Scene">
      <node id="Cube" name="Cube" type="NODE">
        <matrix sid="transform">0.4178067 0 0 0 0 0.4178067 0 0 0 0 0.4178067 0 0 0 0 1</matrix>
        <instance_geometry url="#Cube-mesh" name="Cube">
          <bind_material>
            <technique_common>
              <instance_material symbol="Tower_Material-material" target="#Tower_Material-material"/>
            </technique_common>
          </bind_material>
        </instance_geometry>
      </node>
      <node id="Cylinder" name="Cylinder" type="NODE">
        <matrix sid="transform">0.386003 -0.1598877 0 0 0.1598877 0.386003 0 0 0 0 0.4178067 1.638923 0 0 0 1</matrix>
        <instance_geometry url="#Cylinder_001-mesh" name="Cylinder">
          <bind_material>
            <technique_common>
              <instance_material symbol="Tower_Material-material" target="#Tower_Material-material"/>
            </technique_common>
          </bind_material>
        </instance_geometry>
      </node>
      <node id="Cylinder_001" name="Cylinder_001" type="NODE">
        <matrix sid="transform">0.1413597 0 0 0 0 -6.17903e-9 -0.4178067 -0.6907921 0 0.1413597 -1.82629e-8 1.874574 0 0 0 1</matrix>
        <instance_geometry url="#Cylinder_002-mesh" name="Cylinder_001">
          <bind_material>
            <technique_common>
              <instance_material symbol="Tower_Material-material" target="#Tower_Material-material"/>
            </technique_common>
          </bind_material>
        </instance_geometry>
      </node>
    </visual_scene>
  </library_visual_scenes>
  <scene>
    <instance_visual_scene url="#Scene"/>
  </scene>
</COLLADA>